3
.25 .25 .50
.5 .5
WWWWWWWWWWWWWWWWWWWW
W                  W
W                  W
W                  W
W                  W
W                  W
W                  W
W                  W
W                  W
W                  W
W                  W
W                  W
W                  W
W                  W
W                  W
W                  W
W                  W
W                  W
W                  W
WWWWWWWWWWWWWWWWWWWW